<svg width="35" height="33" viewBox="0 0 35 33" fill="none" xmlns="http://www.w3.org/2000/svg">
<path fill-rule="evenodd" clip-rule="evenodd" d="M8.44643 33C23.024 33 34.8415 21.8071 34.8415 8C34.8415 5.2022 34.3563 2.51174 33.4612 0H8C3.58172 0 0 3.58172 0 8V31.6926C2.6519 32.5404 5.4925 33 8.44643 33Z" fill="#219653"/>
<path d="M8.45877 17.1001C7.87289 17.1001 7.36839 16.9154 6.94525 16.5461C6.53839 16.162 6.33496 15.704 6.33496 15.1721C6.33496 14.6403 6.53839 14.1897 6.94525 13.8203C7.36839 13.451 7.87289 13.2663 8.45877 13.2663C9.04465 13.2663 9.54102 13.451 9.94788 13.8203C10.3547 14.1897 10.5582 14.6403 10.5582 15.1721C10.5582 15.704 10.3547 16.162 9.94788 16.5461C9.54102 16.9154 9.04465 17.1001 8.45877 17.1001ZM6.79878 5.66519V1.1001H10.0944V5.66519L9.75259 11.5156H7.14055L6.79878 5.66519Z" fill="#27AE60"/>
</svg>